Structuring your data
…
---
# One column for condition, one column for RT

```
## # A tibble: 40 x 3
## # Groups:   Participant [10]
##    Participant exp_condition       RT
##          <int> <fct>            <dbl>
##  1           1 Block1_different  395.
##  2           1 Block1_same       362.
##  3           1 Block2_different  358.
##  4           1 Block2_same       436.
##  5           2 Block1_different  405.
##  6           2 Block1_same       348.
##  7           2 Block2_different  390.
##  8           2 Block2_same       459.
##  9           3 Block1_different  350.
## 10           3 Block1_same       422.
## # ... with 30 more rows
```
…
