Importing, transforming, and summarising your data
…
---
# Prison population

Once the data is imported, we have a *tibble*.

We can immediately see there are 6 columns with 22409 rows.

```r
prison_pop
```

```
## # A tibble: 22,409 x 6
##    View        Date   Establishment Sex   `Age / Custody / Nati~ Population
##    <chr>       <chr>  <chr>         <chr> <chr>                       <dbl>
##  1 a Establis~ 2015-~ Altcourse     Male  Adults (21+)                  922
##  2 a Establis~ 2015-~ Altcourse     Male  Juveniles and Young A~        169
##  3 a Establis~ 2015-~ Ashfield      Male  Adults (21+)                  389
##  4 a Establis~ 2015-~ Askham Grange Fema~ Adults (21+)                   NA
##  5 a Establis~ 2015-~ Askham Grange Fema~ Juveniles and Young A~         NA
##  6 a Establis~ 2015-~ Aylesbury     Male  Adults (21+)                  113
##  7 a Establis~ 2015-~ Aylesbury     Male  Juveniles and Young A~        268
##  8 a Establis~ 2015-~ Bedford       Male  Adults (21+)                  459
##  9 a Establis~ 2015-~ Bedford       Male  Juveniles and Young A~         30
## 10 a Establis~ 2015-~ Belmarsh      Male  Adults (21+)                  794
## # ... with 22,399 more rows
```
…
Ellis & Renouf (2018) collected data online using Qualtrics.

The file contains one column for each question that the participants answered, for a total of 169(!) columns.

Each row is a single participant's answers, and their demographic information.

```r
FearofCrime
```

```
## # A tibble: 301 x 169
##    ResponseID ResponseSet Name  ExternalDataRef~ Status StartDate EndDate
##    <chr>      <chr>       <chr> <lgl>             <dbl> <chr>     <chr>  
##  1 R_ai4tgG1~ Default Re~ Anon~ NA                    0 19/10/14~ 19/10/~
##  2 R_d5OiATV~ Default Re~ Anon~ NA                    0 20/10/14~ 20/10/~
##  3 R_aaBVZUe~ Default Re~ Anon~ NA                    0 20/10/14~ 20/10/~
##  4 R_6nxInLK~ Default Re~ Anon~ NA                    0 20/10/14~ 20/10/~
##  5 R_6SCYbhO~ Default Re~ Anon~ NA                    0 20/10/14~ 20/10/~
##  6 R_5pCxWA6~ Default Re~ Anon~ NA                    0 20/10/14~ 20/10/~
##  7 R_d1nji6V~ Default Re~ Anon~ NA                    0 20/10/14~ 20/10/~
##  8 R_9v6ZgUh~ Default Re~ Anon~ NA                    0 20/10/14~ 20/10/~
##  9 R_5Bg7VjB~ Default Re~ Anon~ NA                    0 20/10/14~ 20/10/~
## 10 R_9Sv17lQ~ Default Re~ Anon~ NA                    0 20/10/14~ 20/10/~
## # ... with 291 more rows, and 162 more variables: Finished <dbl>, `Consent
## #   Form / This study includes a range of questionnaires collecting /
## #   demographic and individual...` <dbl>, sex <dbl>, age <dbl>,
## #   hexaco1 <dbl>, hexaco2 <dbl>, hexaco3 <dbl>, hexaco4 <dbl>,
## #   hexaco5 <dbl>, hexaco6 <dbl>, hexaco7 <dbl>, hexaco8 <dbl>,
## #   hexaco9 <dbl>, hexaco10 <dbl>, hexaco11 <dbl>, hexaco12 <dbl>,
## #   hexaco13 <dbl>, hexaco14 <dbl>, hexaco15 <dbl>, hexaco16 <dbl>,
## #   hexaco17 <dbl>, hexaco18 <dbl>, hexaco19 <dbl>, hexaco20 <dbl>,
## #   hexaco21 <dbl>, hexaco22 <dbl>, hexaco23 <dbl>, hexaco24 <dbl>,
…
# Filtering rows

We can use the **filter()** function to select only the rows we're interested in, using *logical conditions* and *relational operators*.

```r
filter(prison_pop,
       View == "a Establishment*Sex*Age Group")
```

```
## # A tibble: 2,042 x 6
##    View        Date   Establishment Sex   `Age / Custody / Nati~ Population
##    <chr>       <chr>  <chr>         <chr> <chr>                       <dbl>
##  1 a Establis~ 2015-~ Altcourse     Male  Adults (21+)                  922
##  2 a Establis~ 2015-~ Altcourse     Male  Juveniles and Young A~        169
##  3 a Establis~ 2015-~ Ashfield      Male  Adults (21+)                  389
##  4 a Establis~ 2015-~ Askham Grange Fema~ Adults (21+)                   NA
##  5 a Establis~ 2015-~ Askham Grange Fema~ Juveniles and Young A~         NA
##  6 a Establis~ 2015-~ Aylesbury     Male  Adults (21+)                  113
##  7 a Establis~ 2015-~ Aylesbury     Male  Juveniles and Young A~        268
##  8 a Establis~ 2015-~ Bedford       Male  Adults (21+)                  459
##  9 a Establis~ 2015-~ Bedford       Male  Juveniles and Young A~         30
## 10 a Establis~ 2015-~ Belmarsh      Male  Adults (21+)                  794
## # ... with 2,032 more rows
```
…
# Filtering rows

We can have multiple *conditions* for selection with **filter()**.

Suppose we only wanted to include rows where Population is over 300 but under 600.

```r
filter(prison_pop,
       View == "a Establishment*Sex*Age Group",
       Population > 300 & Population < 600)
```

```
## # A tibble: 487 x 6
##    View        Date   Establishment Sex   `Age / Custody / Nati~ Population
##    <chr>       <chr>  <chr>         <chr> <chr>                       <dbl>
##  1 a Establis~ 2015-~ Ashfield      Male  Adults (21+)                  389
##  2 a Establis~ 2015-~ Bedford       Male  Adults (21+)                  459
##  3 a Establis~ 2015-~ Brinsford     Male  Juveniles and Young A~        349
##  4 a Establis~ 2015-~ Bristol       Male  Adults (21+)                  553
##  5 a Establis~ 2015-~ Bronzefield   Fema~ Adults (21+)                  459
##  6 a Establis~ 2015-~ Buckley Hall  Male  Adults (21+)                  440
##  7 a Establis~ 2015-~ Coldingley    Male  Adults (21+)                  515
##  8 a Establis~ 2015-~ Deerbolt      Male  Juveniles and Young A~        311
##  9 a Establis~ 2015-~ Eastwood Park Fema~ Adults (21+)                  331
## 10 a Establis~ 2015-~ Erlestoke     Male  Adults (21+)                  514
## # ... with 477 more rows
```
…
---
background-image: url(../images/05/dplyr-logo.png)
background-size: 6%
background-position: 90% 5%

# Selecting columns

Suppose that, first of all, we were only interested in the age and sex of our participants.

```r
select(FearofCrime, age, sex)
```

```
## # A tibble: 301 x 2
##      age   sex
##    <dbl> <dbl>
##  1    26     2
##  2    66     2
##  3    41     1
##  4    46     1
##  5    53     2
##  6    33     1
##  7    41     2
##  8    39     1
##  9    38     2
## 10    19     2
## # ... with 291 more rows
```
…
Typing these out one by one would be ... *laborious*.

Fortunately, there are some shorthands.

The colon (*:*) operator can be used to say "everything between these columns (inclusive)".

```r
select(FearofCrime, hexaco1:hexaco5)
```

```
## # A tibble: 301 x 5
##    hexaco1 hexaco2 hexaco3 hexaco4 hexaco5
##      <dbl>   <dbl>   <dbl>   <dbl>   <dbl>
##  1       4       5       2       4       1
##  2       2       4       2       4       4
##  3       1       5       2       3       2
##  4       1       5       2       4       1
##  5       2       4       4       5       5
##  6       2       4       2       2       2
##  7       1       5       4       4       4
##  8       2       4       3       2       2
##  9       1       2       4       2       5
## 10       4       4       2       3       2
## # ... with 291 more rows
```
…
For example, the State-Trait Anxiety Inventory (STAI) was collected in the Fear of Crime study.

The STAI is split into two parts of 20 questions, one for "state" anxiety (i.e. a person's generaly propensity towards anxiety), one for "trait" anxiety (i.e. how anxious a person is *right now*).

Although there are 20 items, for a demo I select the first 4 "state"" questions.

```r
FoC_stai <- select(FearofCrime, stai1:stai4)
FoC_stai <- mutate(FoC_stai, state_anxiety = stai1 + stai2 + stai3 + stai4)
FoC_stai["state_anxiety"]
```

```
## # A tibble: 301 x 1
##    state_anxiety
##            <dbl>
##  1             7
##  2             9
##  3            12
##  4             9
##  5            10
##  6            10
##  7            10
##  8             8
##  9            10
## 10            11
## # ... with 291 more rows
```
…
