Multiple predictors and multiple means
…
---
# How the data is structured

.pull-left[

```r
noise_test
```

```
## # A tibble: 150 x 3
##    noise test_score participant
##    <chr>      <dbl>       <int>
##  1 none        6.90           1
##  2 none        8.04           2
##  3 none        9.72           3
##  4 none        8.11           4
##  5 none        7.43           5
##  6 none        8.25           6
##  7 none        7.83           7
##  8 none        6.21           8
##  9 none        7.19           9
## 10 none        6.30          10
## # ... with 140 more rows
```
…
