Repeated measures and factorial ANOVA
…
```r
noise_test_within %>% arrange(participant)
```

```
## # A tibble: 150 x 3
##    noise test_score participant
##    <chr>      <dbl>       <int>
##  1 none        6.51           1
##  2 quiet       5.75           1
##  3 loud        5.67           1
##  4 none        6.82           2
##  5 quiet       4.81           2
##  6 loud        4.48           2
##  7 none        9.23           3
##  8 quiet       3.84           3
##  9 loud        5.28           3
## 10 none        6.36           4
## # ... with 140 more rows
```
…
---
# The structure of the data

.pull-left[
Since each participant takes part in all three noise conditions, there are three rows per participant.

```r
noise_test_mixed %>%
  arrange(participant)
```

```
## # A tibble: 240 x 4
##    noise difficulty test_score participant
##    <chr> <chr>           <dbl>       <int>
##  1 none  hard             5.59           1
##  2 quiet hard             4.05           1
##  3 loud  hard             4.48           1
##  4 none  hard             8.06           2
##  5 quiet hard             5.67           2
##  6 loud  hard             3.77           2
##  7 none  hard             5.11           3
##  8 quiet hard             5.88           3
##  9 loud  hard             3.35           3
## 10 none  hard             5.31           4
## # ... with 230 more rows
```
]
.pull-right[
But since difficulty is between-subjects, the participant ID numbers differ across easy and hard difficulties.

```r
noise_test_mixed %>%
  arrange(difficulty, participant)
```

```
## # A tibble: 240 x 4
##    noise difficulty test_score participant
##    <chr> <chr>           <dbl>       <int>
##  1 none  easy             8.70          41
##  2 quiet easy             8.78          41
##  3 loud  easy             6.03          41
##  4 none  easy             7.42          42
##  5 quiet easy             7.33          42
##  6 loud  easy             7.09          42
##  7 none  easy             7.72          43
##  8 quiet easy             7.90          43
##  9 loud  easy             8.46          43
## 10 none  easy             7.32          44
## # ... with 230 more rows
```
…
