The structure of data
…
2. It needs to tie each value to the right participant.

3. It needs to identify what each value represents in terms of the design.
]

---
class: inverse, center, middle
# The many ways to structure data

---
# One column for condition, one column for RT
.pull-left[

```
## # A tibble: 40 x 3
## # Groups:   Participant [10]
##    Participant exp_condition       RT
##          <int> <fct>            <dbl>
##  1           1 Block1_different  407.
##  2           1 Block1_same       415.
##  3           1 Block2_different  382.
##  4           1 Block2_same       371.
##  5           2 Block1_different  420.
##  6           2 Block1_same       384.
##  7           2 Block2_different  479.
##  8           2 Block2_same       402.
##  9           3 Block1_different  368.
## 10           3 Block1_same       341.
## # ... with 30 more rows
```
…
