Structuring your data
…
---
# One column for condition, one column for RT

```
## # A tibble: 40 x 3
## # Groups:   Participant [10]
##    Participant exp_condition       RT
##          <int> <fct>            <dbl>
##  1           1 Block1_different  385.
##  2           1 Block1_same       354.
##  3           1 Block2_different  374.
##  4           1 Block2_same       393.
##  5           2 Block1_different  440.
##  6           2 Block1_same       414.
##  7           2 Block2_different  371.
##  8           2 Block2_same       397.
##  9           3 Block1_different  427.
## 10           3 Block1_same       375.
## # ... with 30 more rows
```
…
