The basics of statistical testing
…
---
# Importing, transforming, and summarising your data

```r
library(readr)
crime <- read_csv("data/crime.csv")
crime
```

```
## # A tibble: 301 x 15
##    Participant sex     age victim_crime     H     E     X     A     C     O
##    <chr>       <chr> <dbl> <chr>        <dbl> <dbl> <dbl> <dbl> <dbl> <dbl>
##  1 R_01TjXgC1~ male     55 yes            3.7   3     3.4   3.9   3.2   3.6
##  2 R_0dN5YeUL~ fema~    20 no             2.5   3.1   2.5   2.4   2.2   3.1
##  3 R_0DPiPYWh~ male     57 yes            2.6   3.1   3.3   3.1   4.3   2.8
##  4 R_0f7bSsH6~ male     19 no             3.5   1.8   3.3   3.4   2.1   2.7
##  5 R_0rov2RoS~ fema~    20 no             3.3   3.4   3.9   3.2   2.8   3.9
##  6 R_0wioqGER~ fema~    20 no             2.6   2.6   3     2.6   2.9   3.4
##  7 R_0wRO8lNe~ male     34 yes            3.2   2.5   3.2   2.8   4     3.2
##  8 R_116nEdFs~ fema~    19 no             2.9   4     3.9   4.2   3.7   1.9
##  9 R_11ZmBd5V~ fema~    19 yes            3.4   3.4   3.3   3.4   3.2   3.2
## 10 R_12i26Qzo~ male     20 no             2.4   2.1   1.8   2.2   3.4   2.9
## # ... with 291 more rows, and 5 more variables: SA <dbl>, TA <dbl>,
## #   OHQ <dbl>, FoC <dbl>, Foc2 <dbl>
```
…
1.  Do men and women differ in terms of their fear of crime?

2.  Are people who have been a victim of crime more fearful of crime?

So who did they collect data from?
]
.pull-right[

```r
select(crime, sex, victim_crime, FoC)
```

```
## # A tibble: 301 x 3
##    sex    victim_crime   FoC
##    <chr>  <chr>        <dbl>
##  1 male   yes            2.6
##  2 female no             2  
##  3 male   yes            1.2
##  4 male   no             3.2
##  5 female no             2.8
##  6 female no             2  
##  7 male   yes            1.6
##  8 female no             2  
##  9 female yes            3.4
## 10 male   no             1.4
## # ... with 291 more rows
```
…
.pull-left[
None of the measures in the `crime` dataset are *repeated* or *paired*, so for a moment we need to switch to another dataset.

`crossmod` is a dataset from a cognitive experiment in which participants identified objects using by touch. They did this twice. Sometimes the objects changed size; sometimes they stayed the same. The hypothesis was that changing size would slow down naming.
]
.pull-right[

```r
crossmod <- read_csv("data/crossmod.csv")
crossmod
```

```
## # A tibble: 48 x 3
##    participant Size     RT
##          <dbl> <chr> <dbl>
##  1           1 DS    2608.
##  2           1 SS    2195 
##  3           2 DS    2551 
##  4           2 SS    2213 
##  5           3 DS    2900.
##  6           3 SS    2788.
##  7           4 DS    2646.
##  8           4 SS    2390.
##  9           5 DS    3486.
## 10           5 SS    2844.
## # ... with 38 more rows
```
…
